1 10 20
100 200 125
201 210 89
900 1000 174
3947 4633 215
5528 6191 262
836 9474 262
6459 9073 257
130 8756 262
2973 6831 262
168 1107 179
4175 8546 262
1891 9328 262
1410 7139 262
1520 4832 238
428 9437 262
6579 8847 257
2821 8754 262
2829 4921 238
537 5361 238
9267 9895 242
7350 7781 239
7244 9807 260
3317 9750 262
1075 3519 217
476 969 179
1037 4119 238
5710 9619 262
87 3308 217
2005 8605 262
3578 7355 262
1545 3656 217
1815 8448 262
7730 9927 260
4261 5670 236
3555 7749 262
562 2352 183
416 860 171
7235 8201 252
1793 7316 262
1671 3190 217
4307 7081 262
5759 9537 262
401 8048 262
2941 7243 262
3646 3917 238
4452 7984 262
2094 6821 262
142 4440 238
1750 4054 238
8423 9820 260
4859 5324 210
4177 8221 262
4238 6289 262
969 7837 262
7446 8697 252
2598 8409 262
1847 4400 238
1174 2113 180
1895 5139 238
582 4861 238
5288 6119 236
3952 9958 262
2894 5643 238
970 9797 262
4115 9281 262
7467 7490 164
3495 5261 238
1498 7687 262
2563 8897 262
1766 4887 238
2465 6813 262
819 2279 183
3409 5563 238
568 6352 262
3468 7396 262
5179 6496 262
6934 6999 257
777 1201 182
7 8461 262
6574 6592 244
835 3585 217
4556 6834 262
1353 8985 262
6477 8659 257
1482 7721 262
1980 6245 262
171 5238 238
486 7982 262
7787 8029 252
96 9437 262
5232 7624 262
5225 5635 236
7370 8738 252
5386 7764 262
3419 9478 262
6145 6670 262
2537 6832 262
4737 7317 262
1617 4625 238
700 4485 238
3962 5535 215
119 7937 262
4151 9292 262
2809 8578 262
4901 5678 236
9410 9808 198
4616 6683 262
411 7647 262
1630 9626 262
33 6788 262
729 9593 262
2670 6494 262
2094 8322 262
8755 9568 260
1275 3215 217
402 7953 262
3311 8987 262
4204 8839 262
579 4889 238
7707 9022 252
4441 9500 262
3604 6425 262
4045 8707 262
5010 9303 262
2136 7692 262
6592 8108 257
6512 9087 257
2546 3777 238
1437 3347 217
2792 6586 262
1649 4287 238
6552 9432 260
1963 7152 262
917 2924 217
419 8936 262
1096 6687 262
2162 8168 262
188 782 171
5679 9818 262
4749 6179 262
880 1166 182
61 7751 262
171 9299 262
3946 9154 262
496 9163 262
4853 6795 262
1280 5194 238
4267 7019 262
1854 6954 262
4442 6133 236
5015 8160 262
6093 6141 187
801 3734 238
3131 9190 262
