...............
----------------------------------------------------------------------
Ran 15 tests in 0.006s

OK
Name             Stmts   Miss Branch BrPart  Cover   Missing
------------------------------------------------------------
Collatz.py          37      0     16      0   100%
TestCollatz.py      66      0      0      0   100%
------------------------------------------------------------
TOTAL              103      0     16      0   100%
